%YAML 1.1
%TAG !u! tag:unity3d.com,2011:
--- !u!1045 &1
EditorBuildSettings:
  m_ObjectHideFlags: 0
  serializedVersion: 2
  m_Scenes:
  - enabled: 1
    path: Assets/Scenes/TitleScene.unity
    guid: 52ae0234d8d65d34d9a257feef6c23f1
  - enabled: 1
    path: Assets/Scenes/LoadSaveScreen.unity
    guid: 6284239396937aa45a68b813843844ac
  - enabled: 1
    path: Assets/Scenes/SampleScene.unity
    guid: 8c9cfa26abfee488c85f1582747f6a02
  - enabled: 1
    path: Assets/Scenes/WriteSaveScreen.unity
    guid: be5758d1f181a1940b5dfdd5e29b380b
  m_configObjects: {}
