%YAML 1.1
%TAG !u! tag:unity3d.com,2011:
--- !u!114 &11400000
MonoBehaviour:
  m_ObjectHideFlags: 0
  m_CorrespondingSourceObject: {fileID: 0}
  m_PrefabInstance: {fileID: 0}
  m_PrefabAsset: {fileID: 0}
  m_GameObject: {fileID: 0}
  m_Enabled: 1
  m_EditorHideFlags: 0
  m_Script: {fileID: 11500000, guid: 292708e3b7aa4859aea8a5a99c7cad85, type: 3}
  m_Name: Store
  m_EditorClassIdentifier: 
  buildingName: Store
  image: {fileID: 1817286656, guid: 149ef555a92497041bfbb9a4079444fb, type: 3}
  tile: {fileID: 11400000, guid: 6d6ef59a34e91f4409843b1df1211673, type: 2}
  cost: 5
  isFactory: 0
  isStore: 1
  isWarehouse: 0
